Take-home Assignment 2 – ISSS608-VAA
…
person_pairs %>%
  arrange(desc(num_comm_events)) %>%
  print(n = 10)

# A tibble: 22 × 3
   from           to             num_comm_events
   <chr>          <chr>                    <int>
 1 Clepper Jensen Miranda Jordan              38
 2 Mrs. Money     The Intern                  20
 3 The Intern     The Lookout                 20
 4 Boss           Mrs. Money                  10
 5 Sam            The Lookout                  8
 6 Boss           The Middleman                7
 7 Mrs. Money     The Middleman                6
 8 Davis          Nadia Conti                  5
 9 Liam Thorne    Nadia Conti                  4
10 The Accountant The Middleman                4
# ℹ 12 more rows
…
