Take-home Exercise 3 – ISSS608-VAA
…
print(summary_tbl)

# A tibble: 37 × 7
   name            sub_type     cluster    degree betweenness closeness eigen
   <chr>           <chr>        <membrshp>  <dbl>       <dbl>     <dbl> <dbl>
 1 Reef Guardian   Vessel       1              24       56.4      0.016 0.658
 2 Green Guardians Organization 1              18       30.8      0.016 0.521
 3 Sentinel        Vessel       1              18       28.4      0.016 0.567
 4 Horizon         Vessel       1              16       15.3      0.015 0.501
 5 The Lookout     Person       1              12       73.2      0.013 0.275
 6 EcoVigil        Vessel       1              12        5.05     0.013 0.369
 7 Seawatch        Vessel       1              10        1.24     0.012 0.287
 8 Defender        Vessel       1               6        2.27     0.013 0.226
 9 Sam             Person       1               4       33        0.009 0.032
10 Kelly           Person       1               2        0        0.007 0.004
# ℹ 27 more rows
