Take-home Exercise 1 (Part 1) – ISSS608-VAA
…
Remove unnecessary column “Time” since all values are 2024 - the year in which the data was collected.

data <- data %>% select(-Time)

Remove planning areas with 0 population since they don’t contribute any demographic information (no age, sex data to analyze). These areas might be undeveloped, industrial, or restricted areas.

data <- data %>%
  filter(Population > 0)

data %>%
  group_by(Planning_Area) %>%
  summarise(Total_Pop = sum(Population)) 

# A tibble: 42 × 2
   Planning_Area Total_Pop
   <chr>             <dbl>
 1 Ang Mo Kio       160450
 2 Bedok            277660
 3 Bishan            88210
 4 Bukit Batok      168390
 5 Bukit Merah      149390
 6 Bukit Panjang    138730
 7 Bukit Timah       84250
 8 Changi             1830
 9 Choa Chu Kang    190640
10 Clementi         102960
# ℹ 32 more rows
…
